<?xml version="1.0" encoding="utf-8"?>
<!-- Generator: Adobe Illustrator 20.0.0, SVG Export Plug-In . SVG Version: 6.00 Build 0)  -->
<svg version="1.1" id="Layer_1" xmlns="http://www.w3.org/2000/svg" xmlns:xlink="http://www.w3.org/1999/xlink" x="0px" y="0px"
	 viewBox="0 0 190.7 75.7" style="enable-background:new 0 0 190.7 75.7;" xml:space="preserve">
<style type="text/css">
	.st0{fill:#67554F;}
</style>
<path class="st0" d="M62.5,45.9c-3.9,0-7.7-1.1-11.3-3.3c-4.2-2.7-7.1-6.5-8.8-11.3c-0.7-2.4-1.1-4.5-1.1-6.4c0-6,2.2-11.2,6.6-15.6
	l1.3-1.2C52,6.1,54.9,4.7,58,4c1.6-0.3,3.2-0.5,4.5-0.5c4.9,0,9.5,1.7,13.6,5c1.5,1.3,2.5,2.4,3.1,3.1c3,3.9,4.5,8.4,4.5,13.3
	c0,3.8-1.1,7.6-3.4,11.3c-0.5,0.9-1.6,2.2-3,3.7c-1.9,1.7-3.6,2.9-5,3.6C69.1,45.1,65.8,45.9,62.5,45.9 M62.2,8.7
	c-3.5,0-6.9,1.3-10.1,3.7c-1.7,1.6-2.7,2.8-3.2,3.7c-1.6,2.7-2.4,5.5-2.4,8.3v0.4c0,3.6,1.3,7.1,3.8,10.2c1.8,1.9,2.6,2.5,2.9,2.6
	l0.1,0c2.8,2,5.8,3,9,3h0.7c3.5,0,6.9-1.3,10.1-3.7c1.7-1.6,2.7-2.8,3.2-3.7c1.6-2.7,2.4-5.5,2.4-8.3v-0.4c0-3.6-1.3-7-3.8-10.2
	c-1.8-1.9-2.6-2.5-2.9-2.6l-0.1-0.1c-2.8-2-5.8-3-8.9-3H62.2z"/>
<path class="st0" d="M160.4,45.9c-3.9,0-7.7-1.1-11.3-3.3c-4.2-2.7-7.1-6.5-8.8-11.3c-0.7-2.4-1.1-4.5-1.1-6.4
	c0-6,2.2-11.2,6.6-15.6l1.3-1.2c2.7-2.1,5.6-3.5,8.7-4.2c1.6-0.3,3.2-0.5,4.5-0.5c4.9,0,9.5,1.7,13.6,5c1.5,1.3,2.5,2.4,3.1,3.1
	c3,3.9,4.5,8.4,4.5,13.3c0,3.8-1.1,7.6-3.4,11.3c-0.5,0.9-1.6,2.2-3,3.7c-1.9,1.7-3.6,2.9-5,3.6C167,45.1,163.7,45.9,160.4,45.9
	 M160.1,8.7c-3.5,0-6.9,1.3-10,3.7c-1.7,1.6-2.7,2.8-3.2,3.7c-1.6,2.7-2.4,5.5-2.4,8.3v0.4c0,3.6,1.3,7,3.8,10.2
	c1.8,1.9,2.6,2.5,2.9,2.6l0.1,0.1c2.8,2,5.8,3,8.9,3h0.7c3.5,0,6.9-1.3,10-3.7c1.7-1.6,2.7-2.8,3.2-3.7c1.6-2.7,2.4-5.5,2.4-8.3
	v-0.4c0-3.6-1.3-7-3.8-10.2c-1.8-1.9-2.6-2.5-2.9-2.6l-0.1-0.1c-2.8-2-5.8-3-8.9-3H160.1z"/>
<path class="st0" d="M6.6,45.9l-3.2-0.1c0,0,0-2.8,0-3.1V12c0-0.3,0-0.6,0.1-0.9C3.7,9.5,4.2,7.9,5,6.6c1.3-1.8,3.3-2.9,5.5-3.1
	c0.3,0,0.7,0,0.9,0h1.6c3.3,0,5.9,0.4,7.8,1.1c4.5,1.5,8.2,4.2,10.9,8.1c0.8,1.2,1.7,2.9,2,3.8c1.1,2.6,1.7,5.4,1.7,8.3
	c0,5.1-1.8,9.8-5.2,13.9c-1.1,1.2-2.2,2.2-3.1,2.9c-1.6,1.2-3.1,2-4.2,2.5c-1.4,0.6-2.8,1.1-4.2,1.4c-1.2,0.3-3.1,0.5-5.7,0.5H6.6z
	 M8.5,40.8c0.6,0,2.1,0.1,2.5,0.1h2.8c5.1,0,9.3-2,12.7-5.9c1.9-2.3,3.1-5,3.6-7.9c0.1-0.9,0.2-1.6,0.2-2.2v-0.7
	c0-3.3-1.1-6.4-3.3-9.5c-1-1.3-2.2-2.4-3.4-3.3c-1.8-1.3-3.9-2.3-6-2.7c-1.2-0.3-2.5-0.4-3.8-0.4l-2,0c-1.7,0-3.1,1.4-3.1,3.1v27
	L8.5,40.8z"/>
<path class="st0" d="M130.3,7.2L130.3,7.2L130.3,7.2c-0.1-1.7-1.4-3-3.1-3c-0.9,0-1.8,0.4-2.4,1.1l-9.6,14l-2.2,3.3c0,0,0,0,0,0
	c0,0,0,0,0,0l-0.1,0.2c0,0,0,0,0,0c-0.1,0.1-0.2,0.2-0.2,0.2c0,0-0.1,0.1-0.1,0.1c-0.3,0.2-0.6,0.4-1.1,0.4c-0.4,0-0.7-0.2-1.1-0.4
	c0,0-0.1-0.1-0.1-0.1c-0.1-0.1-0.2-0.2-0.2-0.2c0,0,0,0,0,0l-0.1-0.2c0,0,0,0,0,0c0,0,0,0,0,0l-2.2-3.3L98,5.3
	c-0.6-0.7-1.5-1.1-2.4-1.1c-1.7,0-3,1.3-3.1,3v0.1h0l-2.8,38.5h4.9l2.8-32.5l0-0.1c0,0,0-0.1,0.1-0.1c0,0,0.1,0,0.1,0l0,0l0,0
	c1.9,2.9,6.1,9.3,9,13.7c0,0,0,0,0,0c1,1.5,2.8,2.5,4.8,2.6c2,0,3.7-1,4.8-2.6c0,0,0,0,0,0c2.9-4.4,7.1-10.8,9-13.7l0,0l0,0
	c0.1,0,0.1,0,0.1,0c0.1,0,0.1,0.1,0.1,0.1l0,0.1l2.8,32.5h4.9L130.3,7.2z"/>
<g>
	<path class="st0" d="M83.1,70.3h-7.8V57.6H76v12.1h7.1V70.3z"/>
	<path class="st0" d="M85.6,59.5h-0.7v-2h0.7V59.5z M85.6,70.3h-0.7v-9h0.7V70.3z"/>
	<path class="st0" d="M91,70.3h-0.6l-3.3-9h0.8l2.2,6.1c0.3,0.7,0.5,1.6,0.6,1.8h0c0.1-0.2,0.3-1.1,0.6-1.8l2.3-6.1h0.7L91,70.3z"/>
	<path class="st0" d="M102.8,65.7v0.2h-7V66c0,2.2,1.1,3.9,3.3,3.9c1.9,0,2.7-1.2,3.2-2.1l0.5,0.5c-0.5,0.9-1.6,2.2-3.7,2.2
		c-2.5,0-4.1-1.7-4.1-4.7c0-2.8,1.5-4.7,4-4.7C101.4,61.2,102.8,63,102.8,65.7z M95.8,65.2h6.2c0-1.7-1.1-3.5-3-3.5
		C97.2,61.8,96.1,63.1,95.8,65.2z"/>
	<path class="st0" d="M109.1,68.5L109.1,68.5l0,1.8h-0.7V57.6h0.7v5.7h0c0.4-1.1,1.4-2.1,3.1-2.1c2.4,0,3.8,1.8,3.8,4.7
		c0,2.9-1.5,4.7-3.8,4.7C110.4,70.6,109.5,69.6,109.1,68.5z M112.1,70c2,0,3.1-1.5,3.1-4.1c0-2.7-1.2-4.1-3.1-4.1
		c-1.9,0-3.1,1.4-3.1,4.1C109,68.5,110.2,70,112.1,70z"/>
	<path class="st0" d="M125,65.7v0.2h-7V66c0,2.2,1.1,3.9,3.3,3.9c1.9,0,2.7-1.2,3.2-2.1l0.5,0.5c-0.5,0.9-1.6,2.2-3.7,2.2
		c-2.5,0-4.1-1.7-4.1-4.7c0-2.8,1.5-4.7,4-4.7C123.6,61.2,125,63,125,65.7z M118,65.2h6.2c0-1.7-1.1-3.5-3-3.5
		C119.4,61.8,118.2,63.1,118,65.2z"/>
	<path class="st0" d="M126.4,63.9c0-1.8,1.4-2.7,3.2-2.7c0.9,0,1.9,0.2,2.5,0.9c0.3,0.4,0.5,0.9,0.5,1.8v4.8c0,0.8,0.1,1.2,0.9,1.2
		c0.2,0,0.4,0,0.6-0.1v0.6c-0.2,0.1-0.5,0.1-0.8,0.1c-0.9,0-1.3-0.4-1.3-1.3c0-0.1,0-0.2,0-0.4h0c-0.4,0.9-1.3,1.8-3.1,1.8
		c-1.9,0-2.9-1.2-2.9-2.7c0-0.7,0.2-1.3,0.7-1.7c0.5-0.5,1.2-0.7,2.3-0.9l2.4-0.4c0.4-0.1,0.5-0.2,0.5-0.5V64c0-1.5-0.8-2.3-2.5-2.3
		c-1.8,0-2.6,0.9-2.6,2.4L126.4,63.9z M132,65.3c-0.1,0.1-0.6,0.2-1.2,0.3l-1.4,0.2c-1.3,0.2-2.6,0.5-2.6,2c0,1.3,0.9,2.1,2.3,2.1
		c1.9,0,2.9-1.5,2.9-3V65.3z"/>
	<path class="st0" d="M135.2,61.4h0.7v4.9c0,2.2,0.2,3.7,2.4,3.7c0.9,0,1.5-0.3,2-0.8c0.6-0.6,0.8-1.5,0.8-2.3v-5.4h0.7v9h-0.7v-1.6
		h0c-0.4,0.9-1.3,1.8-3,1.8c-1.3,0-2-0.5-2.5-1.3c-0.3-0.6-0.5-1.4-0.5-2.4V61.4z"/>
	<path class="st0" d="M147.9,70.1c-0.4,0.2-1,0.4-1.6,0.4c-0.5,0-1-0.2-1.3-0.5c-0.2-0.3-0.3-0.6-0.3-1.5V62H143v-0.6h1.8v-3.4
		l0.7-0.2v3.6h2.2V62h-2.2v6.5c0,0.5,0,0.8,0.2,1c0.1,0.2,0.4,0.4,0.8,0.4c0.5,0,1.1-0.2,1.4-0.5V70.1z"/>
	<path class="st0" d="M150.2,59.5h-0.7v-2h0.7V59.5z M150.2,70.3h-0.7v-9h0.7V70.3z"/>
	<path class="st0" d="M157.1,62h-2.4v8.3H154V62h-2.1v-0.6h2.1v-2c0-0.8,0.2-1.2,0.4-1.5c0.4-0.4,0.9-0.6,1.6-0.6
		c0.5,0,0.9,0.1,1.2,0.2v0.7c-0.3-0.1-0.8-0.2-1.2-0.2c-0.4,0-0.7,0.1-1,0.3c-0.2,0.2-0.3,0.4-0.3,1v2.1h2.4V62z"/>
	<path class="st0" d="M158.4,61.4h0.7v4.9c0,2.2,0.2,3.7,2.4,3.7c0.9,0,1.5-0.3,2-0.8c0.6-0.6,0.8-1.5,0.8-2.3v-5.4h0.7v9h-0.7v-1.6
		h0c-0.4,0.9-1.3,1.8-3,1.8c-1.3,0-2-0.5-2.5-1.3c-0.3-0.6-0.5-1.4-0.5-2.4V61.4z"/>
	<path class="st0" d="M168.3,70.3h-0.7V57.6h0.7V70.3z"/>
	<path class="st0" d="M171.4,70.3h-0.7V57.6h0.7V70.3z"/>
	<path class="st0" d="M173.4,73.3c0.2,0.2,0.6,0.2,0.9,0.2c0.3,0,0.5-0.1,0.7-0.2c0.2-0.2,0.4-0.5,0.7-1.1l0.8-2l-3.2-8.7h0.8
		l2.3,6.4l0.5,1.5h0c0.1-0.3,0.3-0.8,0.6-1.5l2.4-6.3h0.8l-4,10.2c-0.3,0.7-0.5,1.3-0.8,1.7c-0.4,0.6-0.8,0.9-1.6,0.9
		c-0.4,0-0.7-0.1-0.9-0.2V73.3z"/>
</g>
<g>
	<path class="st0" d="M178.4,5.3h2.9v0.6h-1.1v3.2h-0.7V5.9h-1.1V5.3z"/>
	<path class="st0" d="M183.5,9.1l-0.7-2.3c-0.1-0.4-0.2-0.7-0.2-0.7h0c0,0.2,0,0.7,0,1.4v1.6H182V5.3h1l0.6,2.1
		c0.1,0.4,0.2,0.6,0.2,0.8h0c0-0.2,0.1-0.5,0.2-0.8l0.6-2.1h1v3.8H185V7.5c0-0.5,0-1.1,0-1.5h0c0,0.2-0.1,0.4-0.2,0.7l-0.7,2.3
		H183.5z"/>
</g>
</svg>
